{
    "variables": {
    "vpc_region": "us-east-1",
    "instance_type": "t2.micro",
    "ssh_username": "ubuntu"
  },
    "builders": [
    {
      "type": "amazon-ebs",
      "region": "us-east-1",

      "subnet_filter": {
       "filters": {
        "tag:Name": "TestSubnet"
        }
      },
      "associate_public_ip_address": true,
      "security_group_filter": {
       "filters": {
        "tag:Name": "TestSG"
        }
      },
      "instance_type": "{{user `instance_type`}}",
      "ssh_username": "{{user `ssh_username`}}",
      "ami_name": "gold-ami-ubuntu-{{isotime | clean_resource_name}}",
      "source_ami": "ami-0574da719dca65348"

    }
  ],
  "provisioners": [
    {
     "type": "shell",
     "script": "script.sh"
  }
  ]
}
